[
  {
    "index": 1,
    "name": "Сергей Шнуров",
    "city": "Минск",
    "address": "ул. Орловска 45-12 ул. Орловска 45-12 ул. Орловска 45-12 ул. Орловска 45-12",
    "tel": "+375 (29) 122 12 12",
    "email": "shnur@inbox.ru"
  },
  {
    "index": 2,
    "name": "Ирина Крылова",
    "city": "Минск",
    "address": "ул. Орловска 45-12",
    "tel": "+375 (29) 122 12 12",
    "email": "krylova@inbox.ru"
  },
  {
    "index": 3,
    "name": "Ирина Крылова",
    "city": "Минск",
    "address": "ул. Орловска 45-12",
    "tel": "+375 (29) 122 12 12",
    "email": "krylova@inbox.ru"
  },
  {
    "index": 4,
    "name": "Сергей Шнуров",
    "city": "Минск",
    "address": "ул. Орловска 45-12",
    "tel": "+375 (29) 122 12 12",
    "email": "shnur@inbox.ru"
  }
]